<?xml version="1.0" encoding="UTF-8" standalone="no"?>
<gpx xmlns="http://www.topografix.com/GPX/1/1" creator="GlobalMotion" version="1.1" xmlns:xsi="http://www.w3.org/2001/XMLSchema-instance" xsi:schemaLocation="http://www.topografix.com/GPX/1/1 http://www.topografix.com/GPX/1/1/gpx.xsd"><trk>
  <name>2011-08-22 08:45</name>
<trkseg>
<trkpt lat="49.548450000" lon="21.357200000">
  <ele>692.000000</ele>
  <time>2011-08-22T06:48:46Z</time>
</trkpt>
<trkpt lat="49.550150000" lon="21.355010000">
  <ele>689.000000</ele>
  <time>2011-08-22T06:52:51Z</time>
</trkpt>
<trkpt lat="49.544870000" lon="21.347240000">
  <ele>663.000000</ele>
  <time>2011-08-22T07:03:22Z</time>
</trkpt>
<trkpt lat="49.538970000" lon="21.348790000">
  <ele>679.000000</ele>
  <time>2011-08-22T07:22:02Z</time>
</trkpt>
<trkpt lat="49.532110000" lon="21.346260000">
  <ele>677.000000</ele>
  <time>2011-08-22T07:32:48Z</time>
</trkpt>
<trkpt lat="49.529780000" lon="21.341910000">
  <ele>648.000000</ele>
  <time>2011-08-22T07:39:19Z</time>
</trkpt>
<trkpt lat="49.517280000" lon="21.353000000">
  <ele>586.000000</ele>
  <time>2011-08-22T07:59:04Z</time>
</trkpt>
<trkpt lat="49.516930000" lon="21.349290000">
  <ele>584.000000</ele>
  <time>2011-08-22T08:02:37Z</time>
</trkpt>
<trkpt lat="49.513890000" lon="21.346720000">
  <ele>586.000000</ele>
  <time>2011-08-22T08:07:06Z</time>
</trkpt>
<trkpt lat="49.511020000" lon="21.338180000">
  <ele>573.000000</ele>
  <time>2011-08-22T08:16:12Z</time>
</trkpt>
<trkpt lat="49.508240000" lon="21.336580000">
  <ele>571.000000</ele>
  <time>2011-08-22T08:20:22Z</time>
</trkpt>
<trkpt lat="49.506060000" lon="21.321270000">
  <ele>566.000000</ele>
  <time>2011-08-22T08:39:07Z</time>
</trkpt>
<trkpt lat="49.507900000" lon="21.316140000">
  <ele>577.000000</ele>
  <time>2011-08-22T08:44:37Z</time>
</trkpt>
<trkpt lat="49.499000000" lon="21.303730000">
  <ele>640.000000</ele>
  <time>2011-08-22T09:26:48Z</time>
</trkpt>
<trkpt lat="49.499010000" lon="21.303970000">
  <ele>632.000000</ele>
  <time>2011-08-22T09:29:34Z</time>
</trkpt>
<trkpt lat="49.499760000" lon="21.303280000">
  <ele>640.000000</ele>
  <time>2011-08-22T09:40:41Z</time>
</trkpt>
<trkpt lat="49.499190000" lon="21.299210000">
  <ele>663.000000</ele>
  <time>2011-08-22T09:46:39Z</time>
</trkpt>
<trkpt lat="49.503200000" lon="21.295250000">
  <ele>709.000000</ele>
  <time>2011-08-22T09:53:31Z</time>
</trkpt>
<trkpt lat="49.504410000" lon="21.281310000">
  <ele>721.000000</ele>
  <time>2011-08-22T10:08:06Z</time>
</trkpt>
<trkpt lat="49.494960000" lon="21.263740000">
  <ele>661.000000</ele>
  <time>2011-08-22T10:36:27Z</time>
</trkpt>
<trkpt lat="49.489870000" lon="21.268010000">
  <ele>562.000000</ele>
  <time>2011-08-22T10:59:29Z</time>
</trkpt>
<trkpt lat="49.491060000" lon="21.267430000">
  <ele>531.000000</ele>
  <time>2011-08-22T11:05:37Z</time>
</trkpt>
<trkpt lat="49.489890000" lon="21.268950000">
  <ele>509.000000</ele>
  <time>2011-08-22T12:42:21Z</time>
</trkpt>
<trkpt lat="49.492750000" lon="21.261770000">
  <ele>510.000000</ele>
  <time>2011-08-22T12:51:28Z</time>
</trkpt>
<trkpt lat="49.485430000" lon="21.251880000">
  <ele>553.000000</ele>
  <time>2011-08-22T13:09:59Z</time>
</trkpt>
<trkpt lat="49.483180000" lon="21.251830000">
  <ele>560.000000</ele>
  <time>2011-08-22T13:12:49Z</time>
</trkpt>
<trkpt lat="49.478990000" lon="21.243010000">
  <ele>613.000000</ele>
  <time>2011-08-22T13:24:50Z</time>
</trkpt>
<trkpt lat="49.473180000" lon="21.238880000">
  <ele>669.000000</ele>
  <time>2011-08-22T13:34:49Z</time>
</trkpt>
<trkpt lat="49.475840000" lon="21.236040000">
  <ele>715.000000</ele>
  <time>2011-08-22T13:44:35Z</time>
</trkpt>
<trkpt lat="49.474190000" lon="21.235280000">
  <ele>720.000000</ele>
  <time>2011-08-22T13:45:46Z</time>
</trkpt>
<trkpt lat="49.475360000" lon="21.236360000">
  <ele>853.000000</ele>
  <time>2011-08-22T13:57:04Z</time>
</trkpt>
<trkpt lat="49.468060000" lon="21.223470000">
  <ele>772.000000</ele>
  <time>2011-08-22T14:41:32Z</time>
</trkpt>
<trkpt lat="49.469830000" lon="21.220390000">
  <ele>602.000000</ele>
  <time>2011-08-22T15:27:19Z</time>
</trkpt>
<trkpt lat="49.468920000" lon="21.219050000">
  <ele>620.000000</ele>
  <time>2011-08-22T15:34:34Z</time>
</trkpt>
<trkpt lat="49.468670000" lon="21.219030000">
  <ele>619.000000</ele>
  <time>2011-08-22T15:34:58Z</time>
</trkpt>
<trkpt lat="49.470100000" lon="21.217780000">
  <ele>614.000000</ele>
  <time>2011-08-22T15:37:30Z</time>
</trkpt>
<trkpt lat="49.468110000" lon="21.214070000">
  <ele>593.000000</ele>
  <time>2011-08-22T15:42:22Z</time>
</trkpt>
<trkpt lat="49.467320000" lon="21.213170000">
  <ele>594.000000</ele>
  <time>2011-08-22T15:43:44Z</time>
</trkpt>
<trkpt lat="49.467220000" lon="21.212540000">
  <ele>593.000000</ele>
  <time>2011-08-22T15:44:36Z</time>
</trkpt>
<trkpt lat="49.465810000" lon="21.212100000">
  <ele>601.000000</ele>
  <time>2011-08-22T15:47:15Z</time>
</trkpt>
<trkpt lat="49.465440000" lon="21.212260000">
  <ele>603.000000</ele>
  <time>2011-08-22T15:47:57Z</time>
</trkpt>
<trkpt lat="49.460200000" lon="21.204780000">
  <ele>633.000000</ele>
  <time>2011-08-22T15:23:35Z</time>
</trkpt>
<trkpt lat="49.459750000" lon="21.204840000">
  <ele>634.000000</ele>
  <time>2011-08-22T15:23:35Z</time>
</trkpt>
<trkpt lat="49.460120000" lon="21.204120000">
  <ele>638.000000</ele>
  <time>2011-08-22T16:18:32Z</time>
</trkpt>
<trkpt lat="49.463660000" lon="21.201340000">
  <ele>917.000000</ele>
  <time>2011-08-22T16:33:08Z</time>
</trkpt>
<trkpt lat="49.464470000" lon="21.199790000">
  <ele>918.000000</ele>
  <time>2011-08-22T15:23:35Z</time>
</trkpt>
<trkpt lat="49.464760000" lon="21.199000000">
  <ele>915.000000</ele>
  <time>2011-08-22T16:36:45Z</time>
</trkpt>
<trkpt lat="49.464230000" lon="21.198040000">
  <ele>914.000000</ele>
  <time>2011-08-22T16:37:44Z</time>
</trkpt>
<trkpt lat="49.463650000" lon="21.195450000">
  <ele>911.000000</ele>
  <time>2011-08-22T16:40:34Z</time>
</trkpt>
<trkpt lat="49.463700000" lon="21.192340000">
  <ele>903.000000</ele>
  <time>2011-08-22T15:23:35Z</time>
</trkpt>
<trkpt lat="49.463650000" lon="21.190890000">
  <ele>900.000000</ele>
  <time>2011-08-22T16:45:44Z</time>
</trkpt>
<trkpt lat="49.464000000" lon="21.185390000">
  <ele>875.000000</ele>
  <time>2011-08-22T15:23:35Z</time>
</trkpt>
<trkpt lat="49.464320000" lon="21.182650000">
  <ele>871.000000</ele>
  <time>2011-08-22T15:23:35Z</time>
</trkpt>
<trkpt lat="49.464740000" lon="21.181150000">
  <ele>859.000000</ele>
  <time>2011-08-22T15:23:35Z</time>
</trkpt>
<trkpt lat="49.464800000" lon="21.180720000">
  <ele>854.000000</ele>
  <time>2011-08-22T16:56:07Z</time>
</trkpt>
<trkpt lat="49.465510000" lon="21.179630000">
  <ele>848.000000</ele>
  <time>2011-08-22T16:57:19Z</time>
</trkpt>
<trkpt lat="49.465790000" lon="21.177030000">
  <ele>820.000000</ele>
  <time>2011-08-22T16:59:33Z</time>
</trkpt>
<trkpt lat="49.468250000" lon="21.174520000">
  <ele>783.000000</ele>
  <time>2011-08-22T15:23:35Z</time>
</trkpt>
<trkpt lat="49.469000000" lon="21.172480000">
  <ele>781.000000</ele>
  <time>2011-08-22T15:23:35Z</time>
</trkpt>
<trkpt lat="49.469530000" lon="21.171750000">
  <ele>778.000000</ele>
  <time>2011-08-22T17:07:04Z</time>
</trkpt>
<trkpt lat="49.470330000" lon="21.168200000">
  <ele>767.000000</ele>
  <time>2011-08-22T17:11:06Z</time>
</trkpt>
<trkpt lat="49.471110000" lon="21.164530000">
  <ele>756.000000</ele>
  <time>2011-08-22T17:14:51Z</time>
</trkpt>
<trkpt lat="49.471380000" lon="21.164120000">
  <ele>752.000000</ele>
  <time>2011-08-22T17:15:25Z</time>
</trkpt>
<trkpt lat="49.471540000" lon="21.163920000">
  <ele>750.000000</ele>
  <time>2011-08-22T17:15:37Z</time>
</trkpt>
<trkpt lat="49.471620000" lon="21.163840000">
  <ele>749.000000</ele>
  <time>2011-08-22T15:23:35Z</time>
</trkpt>
<trkpt lat="49.472270000" lon="21.162320000">
  <ele>727.000000</ele>
  <time>2011-08-22T17:18:04Z</time>
</trkpt>
<trkpt lat="49.474280000" lon="21.159100000">
  <ele>584.000000</ele>
  <time>2011-08-22T17:23:09Z</time>
</trkpt>
<trkpt lat="49.470460000" lon="21.153160000">
  <ele>554.000000</ele>
  <time>2011-08-22T15:23:35Z</time>
</trkpt>
<trkpt lat="49.470040000" lon="21.151670000">
  <ele>553.000000</ele>
  <time>2011-08-22T17:31:37Z</time>
</trkpt>
<trkpt lat="49.469280000" lon="21.148780000">
  <ele>550.000000</ele>
  <time>2011-08-22T17:33:58Z</time>
</trkpt>
<trkpt lat="49.468950000" lon="21.145640000">
  <ele>548.000000</ele>
  <time>2011-08-22T17:36:46Z</time>
</trkpt>
<trkpt lat="49.468980000" lon="21.145220000">
  <ele>549.000000</ele>
  <time>2011-08-22T17:37:05Z</time>
</trkpt>
<trkpt lat="49.468850000" lon="21.143960000">
  <ele>550.000000</ele>
  <time>2011-08-22T17:37:58Z</time>
</trkpt>
<trkpt lat="49.469280000" lon="21.143350000">
  <ele>551.000000</ele>
  <time>2011-08-22T17:38:32Z</time>
</trkpt>
<trkpt lat="49.469360000" lon="21.142370000">
  <ele>551.000000</ele>
  <time>2011-08-22T15:23:35Z</time>
</trkpt>
<trkpt lat="49.469820000" lon="21.140650000">
  <ele>557.000000</ele>
  <time>2011-08-22T15:23:35Z</time>
</trkpt>
<trkpt lat="49.469940000" lon="21.139720000">
  <ele>558.000000</ele>
  <time>2011-08-22T17:41:44Z</time>
</trkpt>
<trkpt lat="49.468160000" lon="21.133040000">
  <ele>553.000000</ele>
  <time>2011-08-22T17:48:31Z</time>
</trkpt>
<trkpt lat="49.467220000" lon="21.131820000">
  <ele>554.000000</ele>
  <time>2011-08-22T17:50:01Z</time>
</trkpt>
<trkpt lat="49.465110000" lon="21.129670000">
  <ele>555.000000</ele>
  <time>2011-08-22T17:53:26Z</time>
</trkpt>
<trkpt lat="49.463710000" lon="21.128540000">
  <ele>555.000000</ele>
  <time>2011-08-22T15:23:35Z</time>
</trkpt>
<trkpt lat="49.464980000" lon="21.129430000">
  <ele>555.000000</ele>
  <time>2011-08-22T17:53:43Z</time>
</trkpt>
<trkpt lat="49.463600000" lon="21.127430000">
  <ele>555.000000</ele>
  <time>2011-08-22T17:56:04Z</time>
</trkpt>
<trkpt lat="49.458900000" lon="21.121990000">
  <ele>559.000000</ele>
  <time>2011-08-22T18:04:55Z</time>
</trkpt>
<trkpt lat="49.457710000" lon="21.123010000">
  <ele>563.000000</ele>
  <time>2011-08-22T18:06:44Z</time>
</trkpt>
<trkpt lat="49.454810000" lon="21.127410000">
  <ele>582.000000</ele>
  <time>2011-08-22T18:13:15Z</time>
</trkpt>
<trkpt lat="49.453450000" lon="21.127780000">
  <ele>585.000000</ele>
  <time>2011-08-22T18:14:51Z</time>
</trkpt>
<trkpt lat="49.453050000" lon="21.128620000">
  <ele>587.000000</ele>
  <time>2011-08-22T18:16:10Z</time>
</trkpt>
<trkpt lat="49.451650000" lon="21.132110000">
  <ele>608.000000</ele>
  <time>2011-08-22T18:22:35Z</time>
</trkpt>
<trkpt lat="49.452400000" lon="21.130260000">
  <ele>612.000000</ele>
  <time>2011-08-22T18:25:08Z</time>
</trkpt>
<trkpt lat="49.452610000" lon="21.130190000">
  <ele>613.000000</ele>
  <time>2011-08-22T18:27:30Z</time>
</trkpt>
<trkpt lat="49.452640000" lon="21.130170000">
  <ele>613.000000</ele>
  <time>2011-08-22T15:23:35Z</time>
</trkpt>
<trkpt lat="49.452690000" lon="21.129930000">
  <ele>613.000000</ele>
  <time>2011-08-22T18:28:10Z</time>
</trkpt>
</trkseg>
</trk></gpx>
